<svg width="160" height="4" viewBox="0 0 160 4" fill="none" xmlns="http://www.w3.org/2000/svg">
<path d="M159 2.25L159.25 2.25L159.25 1.75L159 1.75L159 2.25ZM0.823227 1.82322C0.725586 1.92085 0.725586 2.07914 0.823227 2.17678L2.41422 3.76777C2.51184 3.8654 2.67014 3.8654 2.76776 3.76777C2.8654 3.67013 2.8654 3.51184 2.76776 3.41421L1.35355 2L2.76776 0.585785C2.8654 0.488154 2.8654 0.329863 2.76776 0.232232C2.67014 0.134601 2.51184 0.134601 2.41422 0.232232L0.823227 1.82322ZM159 1.75L1 1.75L1 2.25L159 2.25L159 1.75Z" fill="white"/>
</svg>
