<svg width="71" height="71" viewBox="0 0 71 71" fill="none" xmlns="http://www.w3.org/2000/svg">
<g clip-path="url(#clip0_783_73)">
<path d="M68.649 19.3755H43.498C42.4018 19.3755 41.5132 20.2599 41.5132 21.351V68.66C41.5132 69.751 42.4018 70.6355 43.498 70.6355H68.649C69.7452 70.6355 70.6339 69.751 70.6339 68.66V21.351C70.6339 20.2599 69.7452 19.3755 68.649 19.3755Z" stroke="white" stroke-miterlimit="10"/>
<path d="M56.0732 65.6713C57.3029 65.6713 58.2997 64.6791 58.2997 63.4553C58.2997 62.2314 57.3029 61.2393 56.0732 61.2393C54.8435 61.2393 53.8467 62.2314 53.8467 63.4553C53.8467 64.6791 54.8435 65.6713 56.0732 65.6713Z" stroke="white" stroke-miterlimit="10"/>
<path d="M51.8257 23.6836H57.6044" stroke="white" stroke-linecap="round" stroke-linejoin="round"/>
<path d="M60.3213 23.6836H59.5596" stroke="white" stroke-linecap="round" stroke-linejoin="round"/>
<path d="M41.5133 38.9404L36.2107 38.3135C40.6051 36.6807 39.1403 31.024 39.1403 31.024L36.6134 9.28664C36.6134 9.28664 35.1047 0.364258 24.8949 0.364258C13.5352 0.364258 12.0191 9.15543 12.0191 9.15543C12.0191 9.15543 9.74862 25.6225 9.36776 31.527C8.98691 37.4315 12.0191 38.3135 12.0191 38.3135L6.96543 38.8165C6.96543 38.8165 0.783849 39.1883 0.527505 46.4778C0.271161 53.7673 0.527505 69.9792 0.527505 69.9792" stroke="white" stroke-linecap="round" stroke-linejoin="round"/>
<path d="M21.1816 11.2915C21.1816 11.2915 19.292 17.5751 13.8575 18.581C13.8575 18.581 13.6084 27.6273 19.1601 31.0243C19.1601 31.0243 19.0356 33.1601 17.5195 34.0421C16.3214 34.7068 15.3397 35.6993 14.6906 36.902C14.0416 38.1048 13.7525 39.4674 13.8575 40.8287C13.8575 40.8287 16.7871 38.1899 19.6655 38.3138C22.1394 42.1385 23.6864 46.4832 24.1845 51.0049C24.1845 51.0049 25.9788 38.9407 28.6302 38.0587C30.8562 38.3013 32.9191 39.3369 34.4382 40.9745C34.4382 40.9745 34.4382 36.0686 31.4134 34.4139C28.3885 32.7592 29.2674 31.1482 29.2674 31.1482C29.2674 31.1482 35.1999 26.6287 34.4382 17.5751C32.9008 17.3282 31.4281 16.7788 30.1064 15.959C28.7847 15.1392 27.6405 14.0654 26.7406 12.8004C26.7406 12.8004 27.2459 15.4392 28.6302 16.3213C28.6302 16.3213 22.5732 15.3153 21.1816 11.2915Z" stroke="white" stroke-linecap="round" stroke-linejoin="round"/>
<path d="M8.05664 69.9797L9.06737 57.9155L11.0815 69.9797" stroke="white" stroke-linecap="round" stroke-linejoin="round"/>
<path d="M49.4526 44.3055C49.4093 44.3027 49.3683 44.2853 49.3363 44.2561C49.3044 44.2269 49.2834 44.1878 49.2768 44.1451V42.2863C49.2768 41.5574 48.3246 41.5574 48.3246 41.5574C47.9662 41.5666 47.618 41.6779 47.3212 41.8781V42.1916H47.4238C47.4932 42.0716 47.5922 41.9712 47.7113 41.8998C47.8305 41.8284 47.966 41.7883 48.105 41.7833C48.7715 41.7833 48.8374 42.5123 48.8374 42.5123C48.8374 42.8622 48.5883 42.8841 48.5883 42.8841C47.1235 42.9715 47.1235 43.664 47.1235 43.664C47.1138 43.7366 47.1138 43.8102 47.1235 43.8827H47.6142C47.604 43.82 47.604 43.756 47.6142 43.6932C47.6142 43.0882 48.8447 43.059 48.8447 43.059V43.7005C48.8447 44.1597 48.2441 44.2035 48.2441 44.2035H45.9296V40.8867L46.0248 40.6535H45.3438L45.4463 40.8867V44.2691L45.3438 44.5096H48.2734C48.3873 44.5248 48.5031 44.5058 48.6062 44.4552C48.7092 44.4046 48.7949 44.3246 48.852 44.2253C48.8835 44.3214 48.9473 44.4036 49.0327 44.4581C49.1182 44.5125 49.2199 44.5359 49.3207 44.5242C49.4441 44.5178 49.5633 44.4775 49.665 44.4076V44.2764C49.6043 44.2851 49.5426 44.2851 49.4819 44.2764L49.4526 44.3055ZM56.1907 40.6316L54.5795 44.2691L54.4257 44.5169H54.9603V44.3347L56.2054 41.5136L56.8353 43.0663H56.1907V43.3069H56.9231L57.3333 44.3201L57.2308 44.5169H57.9632L57.8387 44.3055L56.1907 40.6316ZM61.1858 40.7774C60.9352 40.6605 60.664 40.5936 60.3875 40.5806C60.1311 40.5824 59.8777 40.6353 59.6421 40.7362C59.4066 40.8371 59.1938 40.984 59.0163 41.1682C58.8388 41.3523 58.7002 41.57 58.6086 41.8084C58.5171 42.0468 58.4744 42.301 58.4832 42.556C58.4593 42.8186 58.4929 43.0832 58.5817 43.3316C58.6705 43.58 58.8125 43.8063 58.9977 43.9948C59.1829 44.1833 59.407 44.3296 59.6546 44.4235C59.9021 44.5174 60.1671 44.5567 60.4314 44.5388C60.5628 44.5538 60.6956 44.5538 60.827 44.5388L61.1638 44.4659C61.2541 44.4445 61.3424 44.4152 61.4275 44.3784C61.4815 44.3487 61.533 44.3146 61.5814 44.2764L61.6326 43.9556L61.4422 44.0941L61.2737 44.1962C61.0113 44.3222 60.7227 44.3847 60.4314 44.3784C59.0325 44.3784 59.1058 42.6216 59.1058 42.6216C59.1058 40.7191 60.3729 40.8284 60.3729 40.8284C60.6808 40.8415 60.9759 40.9548 61.2127 41.1511C61.4496 41.3473 61.6151 41.6155 61.6838 41.9146H61.7645L61.6985 41.1856C61.5336 41.0449 61.3572 40.9181 61.1712 40.8066L61.1858 40.7774ZM63.4343 40.8649L63.5295 40.6316H62.8484L62.951 40.8649V44.2472L62.8484 44.4878H63.5295L63.4343 44.2472V40.8649ZM66.071 40.6316H64.6061V40.9815L64.7892 40.8794H65.8586V44.3201L65.7854 44.4878H66.4226L66.3493 44.3201V40.8794H67.4113L67.6018 40.9815V40.6316H66.071ZM51.4227 40.6316V40.9815L51.6058 40.8794H52.6752V44.3201L52.602 44.4878H53.2392L53.1659 44.3201V40.8794H54.2279L54.4183 40.9815V40.6316H51.4227Z" fill="white"/>
</g>
<defs>
<clipPath id="clip0_783_73">
<rect width="71" height="71" fill="white"/>
</clipPath>
</defs>
</svg>
