<svg width="64" height="71" viewBox="0 0 64 71" fill="none" xmlns="http://www.w3.org/2000/svg">
<g clip-path="url(#clip0_783_82)">
<path d="M19.0586 59.3911C18.9787 59.3863 18.9031 59.3528 18.8452 59.2965C18.7873 59.2402 18.7509 59.1647 18.7425 59.0836V55.5556C18.7425 54.2015 16.961 54.2015 16.961 54.2015C16.2971 54.2156 15.6512 54.424 15.1003 54.8017V55.3799H15.3015C15.4261 55.1509 15.6067 54.9584 15.8256 54.8212C16.0446 54.684 16.2946 54.6067 16.5515 54.5967C17.7871 54.5967 17.8876 55.9728 17.8876 55.9728C17.8876 56.6389 17.4279 56.7048 17.4279 56.7048C14.655 56.8585 14.7196 58.1687 14.7196 58.1687C14.7134 58.3092 14.7279 58.4498 14.7627 58.5859H15.6751C15.6316 58.469 15.6097 58.3449 15.6104 58.2199C15.6104 57.0781 17.8876 57.0195 17.8876 57.0195V58.2419C17.8876 59.0983 16.7814 59.1861 16.7814 59.1861H12.4711V52.8913L12.6579 52.4448H11.3936L11.5803 52.8913V59.3179L11.3936 59.7644H16.8101C17.0203 59.7925 17.234 59.7568 17.4244 59.6617C17.6148 59.5667 17.7734 59.4165 17.8805 59.23C17.9414 59.4124 18.0612 59.5682 18.2205 59.6719C18.3798 59.7757 18.5689 59.8212 18.7569 59.801C18.9855 59.7822 19.2056 59.7041 19.3962 59.574V59.3252C19.2833 59.3532 19.1676 59.368 19.0514 59.3691L19.0586 59.3911ZM31.4937 52.4521L28.5412 59.3032L28.261 59.7717H29.2451L29.1733 59.4277L31.4865 54.077L32.6574 57.0049H31.4578V57.466H32.837L33.5985 59.3911L33.4117 59.757H34.7838L34.5468 59.3618L31.4937 52.4521ZM40.7751 52.7376C40.3098 52.5094 39.8039 52.38 39.288 52.3569C35.7464 52.3569 35.7465 56.1119 35.7465 56.1119C35.7025 56.6115 35.7657 57.1149 35.9315 57.5872C36.0974 58.0595 36.362 58.4895 36.707 58.8473C37.052 59.2051 37.4692 59.4823 37.9298 59.6596C38.3903 59.8369 38.8832 59.9101 39.3742 59.8742H39.4389C39.6795 59.8733 39.9196 59.8538 40.1573 59.8156C40.3943 59.7717 40.6027 59.7204 40.7894 59.6692C40.9547 59.6253 41.1158 59.5665 41.2708 59.4935C41.3747 59.447 41.4715 59.3853 41.5581 59.3105L41.6515 58.6957L41.6084 58.6591L41.2564 58.9226L40.9475 59.1202C40.4615 59.3577 39.9275 59.4756 39.3886 59.4643C36.7881 59.4643 36.9246 56.1265 36.9246 56.1265C36.9246 52.5033 39.2808 52.7229 39.2808 52.7229C39.8519 52.7465 40.3995 52.9605 40.8395 53.3321C41.2795 53.7038 41.5875 54.2123 41.7161 54.7797H41.867L41.7377 53.4036C41.4368 53.1573 41.1146 52.9393 40.7751 52.7522V52.7376ZM44.9416 52.8986L45.1212 52.4521H43.8497L44.0365 52.8986V59.3252L43.8497 59.7717H45.1212L44.9416 59.3252V52.8986ZM49.8338 52.4521H47.0537V53.1182L47.3985 52.9205H49.374V59.4569L49.2375 59.7717H50.4228L50.2863 59.4569V52.9205H52.2619L52.6067 53.1182V52.4521H49.8338ZM22.6146 52.4521V53.1182L22.9594 52.9205H24.9349V59.4569L24.7984 59.7717H25.9981L25.8616 59.4569V52.9205H27.8371L28.182 53.1182V52.4521H22.6289H22.6146Z" fill="white"/>
<path d="M63.641 41.6265H0.359375V70.634H63.641V41.6265Z" stroke="white" stroke-miterlimit="10"/>
<path d="M4.74854 27.3679V13.8706H59.2516V27.3679" stroke="white" stroke-miterlimit="10"/>
<path d="M4.74861 13.8709L3.25439 2.61332L4.74861 0.366211H59.2517L60.7459 2.7524L59.2517 13.8709" stroke="white" stroke-miterlimit="10"/>
<path d="M26.3354 35.1487L24.0869 13.7097V10.9136H39.9127V13.8414L37.6642 35.1487" stroke="white" stroke-miterlimit="10"/>
<path d="M2.7085 41.6267V27.3682L32.0038 36.7006L61.292 27.3682V41.6267" stroke="white" stroke-miterlimit="10"/>
<path d="M37.7791 13.8706H24.0869" stroke="white" stroke-miterlimit="10"/>
<path d="M44.9703 32.572L42.4775 17.6107V15.1074H56.6511V17.7278L54.6324 29.7027" stroke="white" stroke-miterlimit="10"/>
<path d="M56.6511 17.75H42.4775" stroke="white" stroke-miterlimit="10"/>
<path d="M18.9436 32.572L21.4364 17.6107V15.1074H7.27002V17.7278L9.28147 29.7027" stroke="white" stroke-miterlimit="10"/>
<path d="M7.2627 17.75H21.4362" stroke="white" stroke-miterlimit="10"/>
<path d="M60.7459 2.75195H3.25439" stroke="white" stroke-miterlimit="10"/>
</g>
<defs>
<clipPath id="clip0_783_82">
<rect width="64" height="71" fill="white"/>
</clipPath>
</defs>
</svg>
