<svg width="90" height="71" viewBox="0 0 90 71" fill="none" xmlns="http://www.w3.org/2000/svg">
<g clip-path="url(#clip0_783_95)">
<path d="M44.9963 32.3838C20.3489 32.3838 0.364258 34.3554 0.364258 36.782C0.364258 37.3165 1.33325 37.8292 3.10368 38.3059C4.19653 36.9842 6.42595 36.6737 8.05794 36.4498C10.0979 36.1754 12.9976 35.9226 16.655 35.7276C24.0864 35.2943 33.9512 35.056 44.4353 35.056C54.9194 35.056 64.7842 35.2943 72.2156 35.7276C75.8585 35.937 78.7727 36.1898 80.8127 36.4498C82.5394 36.6881 84.9364 37.0203 85.9127 38.537C88.2878 38.0025 89.6066 37.4031 89.6066 36.782C89.6357 34.3554 69.6511 32.3838 44.9963 32.3838Z" stroke="white" stroke-miterlimit="10"/>
<path d="M46.5993 64.8034C46.5993 64.8034 36.9895 67.4539 31.8312 58.8091C31.8312 58.8091 28.2685 70.9782 43.0439 70.6244L46.5993 64.8034Z" stroke="white" stroke-miterlimit="10"/>
<path d="M42.381 68.1687C42.8276 68.1687 43.1897 67.8098 43.1897 67.3671C43.1897 66.9243 42.8276 66.5654 42.381 66.5654C41.9343 66.5654 41.5723 66.9243 41.5723 67.3671C41.5723 67.8098 41.9343 68.1687 42.381 68.1687Z" stroke="white" stroke-miterlimit="10"/>
<path d="M61.433 42.2561C59.7063 43.4333 49.142 51.3992 48.4717 50.3809C47.8015 49.3626 56.7628 42.4872 58.3001 39.8078C59.2545 38.1251 57.8411 37.0851 55.9468 38.5367C54.4241 39.6995 48.6029 45.7082 44.4355 47.2971C40.2681 48.8859 43.6632 45.8527 44.9382 44.5166C46.2132 43.1805 49.6739 39.4612 47.8015 38.5367C45.929 37.6123 45.9363 40.4145 41.5722 43.5922C37.2081 46.7699 36.5888 45.8382 32.5817 42.3717C28.5745 38.9051 25.1357 38.5367 24.7131 40.205C24.4727 41.1656 27.3797 43.3105 30.855 45.9827C34.3302 48.6548 33.252 52.0709 33.252 54.8514C33.252 57.6318 35.3721 60.4196 39.0149 62.1168C42.6578 63.8139 45.1203 60.9251 46.5847 59.7335C48.0492 58.5418 51.5244 56.2885 52.9961 55.3641C54.4679 54.4397 57.2656 50.7348 57.2656 50.7348C57.2656 50.7348 54.4606 52.1792 54.0598 51.5798C53.6591 50.9803 62.504 44.7405 63.7717 43.0072C64.8354 41.5772 63.1524 41.0789 61.433 42.2561Z" stroke="white" stroke-miterlimit="10"/>
<path d="M43.2113 42.4799C39.5175 42.4799 35.9257 42.4366 32.5815 42.3716" stroke="white" stroke-miterlimit="10"/>
<path d="M51.5172 42.4438H46.7451" stroke="white" stroke-miterlimit="10"/>
<path d="M61.4329 42.2563L56.0488 42.3791" stroke="white" stroke-miterlimit="10"/>
<path d="M58.4819 38.1108C73.1043 38.4358 83.4791 39.2591 83.4791 40.2197C83.4791 41.0502 75.698 41.7796 64.1065 42.1696" stroke="white" stroke-miterlimit="10"/>
<path d="M26.0611 42.1694C13.894 41.7867 5.3916 41.0789 5.3916 40.2195C5.3916 38.9701 22.8772 37.959 44.4356 37.959C48.6758 37.959 52.7485 37.959 56.5735 38.0673" stroke="white" stroke-miterlimit="10"/>
<path d="M61.7317 10.9342C61.7317 10.9342 56.8503 9.73535 47.765 9.73535C38.6798 9.73535 33.8057 10.9342 33.8057 10.9342V1.54554C33.8057 1.54554 38.0605 0.34668 47.765 0.34668C57.4696 0.34668 61.7317 1.54554 61.7317 1.54554V10.9342Z" stroke="white" stroke-miterlimit="10"/>
<path d="M63.0576 14.1264C63.0576 14.1264 57.7244 12.812 47.7576 12.812C37.7908 12.812 32.4941 14.1264 32.4941 14.1264V12.3136C32.5234 11.9726 32.6682 11.6514 32.905 11.4023C33.1418 11.1531 33.4566 10.9907 33.7983 10.9415C35.8164 10.4359 40.3554 9.90869 47.7576 9.90869C55.1599 9.90869 59.7062 10.4359 61.7243 10.9415C63.0576 11.2664 63.0576 12.032 63.0576 12.032V14.1264Z" stroke="white" stroke-miterlimit="10"/>
<path d="M63.0576 14.3428V30.4913C63.0576 30.4913 57.7244 32.1668 47.7576 32.1668C37.7908 32.1668 32.4941 30.4913 32.4941 30.4913V14.3428" stroke="white" stroke-miterlimit="10"/>
<path d="M61.3891 30.5996V32.4846C61.3891 32.4846 56.6243 32.1668 47.7649 32.1668C38.9055 32.1668 34.1479 32.4846 34.1479 32.4846V30.5996" stroke="white" stroke-miterlimit="10"/>
<path d="M37.4556 0.924316V10.3274" stroke="white" stroke-miterlimit="10"/>
<path d="M35.9692 13.8521V31.2572" stroke="white" stroke-miterlimit="10"/>
<path d="M59.167 13.8521V31.2572" stroke="white" stroke-miterlimit="10"/>
<path d="M57.9429 0.924316V10.3274" stroke="white" stroke-miterlimit="10"/>
<path d="M42.3082 24.6416C42.2743 24.6403 42.2419 24.6273 42.2167 24.6049C42.1914 24.5825 42.1748 24.5521 42.1697 24.5188V23.0744C42.1697 22.5111 41.4412 22.5111 41.4412 22.5111C41.1573 22.5169 40.8812 22.6047 40.647 22.7639V23.0094H40.7345C40.7882 22.9157 40.8653 22.8372 40.9584 22.7816C41.0516 22.7259 41.1576 22.695 41.2663 22.6917C41.7909 22.6917 41.8346 23.2622 41.8346 23.2622C41.8346 23.5367 41.6379 23.5511 41.6379 23.5511C40.4576 23.6161 40.4867 24.165 40.4867 24.165C40.4825 24.2227 40.4825 24.2806 40.4867 24.3383H40.8802C40.8678 24.2861 40.8678 24.2317 40.8802 24.1794C40.8802 23.71 41.8492 23.6883 41.8492 23.6883V24.1939C41.8492 24.5477 41.3756 24.5839 41.3756 24.5839H39.5469V21.9839L39.627 21.7961H39.0879L39.168 21.9839V24.6416L39.0879 24.8222H41.3902C41.4796 24.834 41.5706 24.8198 41.6521 24.7813C41.7335 24.7429 41.802 24.6818 41.8492 24.6055C41.8763 24.6795 41.9276 24.7424 41.9949 24.7843C42.0622 24.8262 42.1417 24.8446 42.2207 24.8366C42.3175 24.8303 42.4108 24.7978 42.4903 24.7427V24.6416C42.4419 24.6475 42.393 24.6475 42.3446 24.6416H42.3082ZM47.634 21.7528L46.3736 24.5839L46.257 24.7788H46.6723V24.6344L47.6559 22.4245L48.1513 23.645H47.6413V23.8328H48.2314L48.552 24.6272L48.4718 24.7788H49.0547L48.96 24.6127L47.634 21.7528ZM51.5756 21.8756C51.3776 21.7787 51.1621 21.7222 50.9417 21.7095C50.7395 21.7113 50.5398 21.7532 50.3543 21.8327C50.1687 21.9122 50.001 22.0277 49.8612 22.1723C49.7213 22.317 49.6121 22.488 49.5399 22.6752C49.4677 22.8623 49.434 23.0619 49.4408 23.2622C49.4238 23.4683 49.4516 23.6755 49.5223 23.87C49.593 24.0645 49.705 24.2417 49.8508 24.3896C49.9965 24.5374 50.1726 24.6526 50.3671 24.7272C50.5615 24.8019 50.7699 24.8342 50.9781 24.8222C51.0798 24.8336 51.1824 24.8336 51.2841 24.8222C51.3751 24.8086 51.4652 24.7893 51.5537 24.7644C51.6239 24.747 51.6923 24.7228 51.7577 24.6922L51.8816 24.62V24.3672L51.7285 24.4755L51.5974 24.5622C51.3904 24.6589 51.1632 24.7059 50.9344 24.6994C49.8343 24.6994 49.8926 23.3272 49.8926 23.3272C49.8926 21.825 50.8907 21.8828 50.8907 21.8828C51.1332 21.8938 51.3655 21.983 51.5523 22.1368C51.739 22.2906 51.87 22.5007 51.9253 22.735H51.9908L51.9325 22.1645C51.8091 22.0669 51.6775 21.9799 51.5391 21.9045L51.5756 21.8756ZM53.346 21.9406L53.4188 21.7528H52.8578L52.938 21.9406V24.5983L52.8578 24.7788H53.397L53.3241 24.5983V21.9406H53.346ZM55.4224 21.7528H54.2421V22.0272L54.3878 21.9478H55.2257V24.6489L55.1674 24.7788H55.6701L55.6191 24.6489V21.9478H56.457L56.6027 22.0272V21.7528H55.4224ZM43.8527 21.7528V22.0272L44.0057 21.9478H44.8436V24.6489L44.7853 24.7788H45.288L45.2297 24.6489V21.9478H46.0676L46.2206 22.0272V21.7528H43.8527Z" fill="white"/>
</g>
<defs>
<clipPath id="clip0_783_95">
<rect width="90" height="71" fill="white"/>
</clipPath>
</defs>
</svg>
