<svg width="48" height="72" viewBox="0 0 48 72" fill="none" xmlns="http://www.w3.org/2000/svg">
<g clip-path="url(#clip0_783_66)">
<path d="M24.0036 71.6351C37.0603 71.6351 47.6448 60.976 47.6448 47.8273C47.6448 34.6786 37.0603 24.0195 24.0036 24.0195C10.9469 24.0195 0.362305 34.6786 0.362305 47.8273C0.362305 60.976 10.9469 71.6351 24.0036 71.6351Z" stroke="white" stroke-miterlimit="10"/>
<path d="M7.88525 30.7339V16.5894C7.89863 12.2905 9.60032 8.17151 12.6188 5.13172C15.6374 2.09192 19.7275 0.378219 23.9964 0.364746C28.2664 0.376295 32.3585 2.08915 35.3786 5.12915C38.3987 8.16915 40.1013 12.2892 40.1147 16.5894V30.7339" stroke="white" stroke-miterlimit="10"/>
<path d="M10.1248 28.8147V16.6334C10.1343 12.9315 11.5989 9.38393 14.1983 6.76625C16.7976 4.14856 20.3204 2.6737 23.9964 2.66406V2.66406C27.6731 2.67369 31.1966 4.14832 33.7971 6.76579C36.3977 9.38327 37.8639 12.9308 37.8753 16.6334V28.8147" stroke="white" stroke-miterlimit="10"/>
<path d="M16.4663 43.2364C16.4124 43.232 16.3616 43.2095 16.3222 43.1724C16.2827 43.1353 16.2568 43.0858 16.2488 43.032V40.6746C16.2488 39.7769 15.0531 39.7769 15.0531 39.7769C14.6052 39.7847 14.1693 39.9243 13.7992 40.1783V40.5797H13.9369C14.0203 40.4267 14.1415 40.2979 14.2888 40.2058C14.436 40.1138 14.6045 40.0616 14.7776 40.0542C15.6111 40.0542 15.6763 40.9738 15.6763 40.9738C15.6763 41.419 15.3646 41.4409 15.3646 41.4409C13.502 41.5504 13.5455 42.4262 13.5455 42.4262C13.5324 42.5182 13.5324 42.6116 13.5455 42.7036H14.1615C14.1309 42.6271 14.1162 42.5451 14.1181 42.4627C14.1181 41.7329 15.6473 41.6599 15.6473 41.6599V42.4773C15.6473 43.0466 14.9226 43.105 14.9226 43.105H12.0236V38.9229L12.1468 38.631H11.2988L11.4293 38.9229V43.1999L11.2988 43.4991H14.9226C15.065 43.5186 15.2099 43.495 15.3389 43.4313C15.468 43.3676 15.5753 43.2667 15.6473 43.1415C15.6892 43.2631 15.7707 43.3668 15.8787 43.4357C15.9866 43.5047 16.1145 43.5347 16.2416 43.521C16.3943 43.5108 16.5418 43.4604 16.6692 43.375V43.2072C16.5921 43.215 16.5144 43.215 16.4373 43.2072L16.4663 43.2364ZM24.8154 38.6018L22.8223 43.1561L22.6339 43.4699H23.3007L23.2499 43.2364L24.8081 39.682L25.5908 41.638H24.7864V41.9445H25.7141L26.2286 43.2218L26.1054 43.4699H27.0258L26.8664 43.2072L24.8154 38.6018ZM31.0627 38.7916C30.7498 38.6382 30.4099 38.5489 30.0625 38.5288C27.6781 38.5288 27.6781 41.0322 27.6781 41.0322C27.6381 41.3714 27.6736 41.7153 27.7821 42.0389C27.8906 42.3626 28.0694 42.6578 28.3053 42.9031C28.5413 43.1485 28.8286 43.3378 29.1463 43.4573C29.4641 43.5768 29.8043 43.6235 30.1423 43.594H30.1929C30.3555 43.5933 30.5177 43.5811 30.6786 43.5575L31.1061 43.4626C31.2155 43.4329 31.3223 43.3938 31.4251 43.3458C31.4965 43.3153 31.5626 43.2734 31.6208 43.2218L31.686 42.813L31.4468 42.9882C31.3849 43.0403 31.3167 43.0845 31.2439 43.1196C30.9148 43.2815 30.552 43.3616 30.1858 43.3531C28.4391 43.3531 28.5333 41.1636 28.5333 41.1636C28.5333 38.7478 30.1205 38.8937 30.1205 38.8937C30.5049 38.9109 30.8731 39.0543 31.1689 39.3021C31.4646 39.5499 31.6717 39.8884 31.7584 40.2659H31.8599L31.7729 39.3462C31.5657 39.1465 31.3372 38.9702 31.0917 38.8208L31.0627 38.7916ZM33.8675 38.8937L33.9834 38.6018H33.1355L33.2587 38.8937V43.1707L33.1355 43.4699H33.9834L33.8675 43.1707V38.9229V38.8937ZM37.1578 38.6018H35.2879V39.0397L35.5199 38.9083H36.8534V43.2875L36.7592 43.4991H37.5564L37.4694 43.2875V38.9083H38.8392L39.0711 39.0397V38.6018H37.1578ZM18.829 38.6018V39.0397L19.0681 38.9083H20.3944V43.2875L20.3075 43.4991H21.1047L21.0105 43.2875V38.9083H22.344L22.5759 39.0397V38.6018H18.829Z" fill="white"/>
<path d="M27.0548 55.0675C27.0558 54.6173 26.9374 54.175 26.7117 53.7864C26.4859 53.3978 26.1612 53.077 25.771 52.8573C25.3808 52.6376 24.9393 52.5269 24.4923 52.5367C24.0454 52.5466 23.6092 52.6766 23.2289 52.9133C22.8486 53.1499 22.538 53.4847 22.3294 53.8829C22.1207 54.2811 22.0216 54.7282 22.0422 55.1779C22.0628 55.6276 22.2024 56.0636 22.4466 56.4408C22.6908 56.8179 23.0307 57.1224 23.431 57.3228V60.6947C23.4536 60.9762 23.5806 61.2389 23.7868 61.4304C23.9929 61.6219 24.2631 61.7282 24.5435 61.7282C24.824 61.7282 25.0942 61.6219 25.3003 61.4304C25.5064 61.2389 25.6335 60.9762 25.656 60.6947V57.3228C26.0744 57.1151 26.4269 56.794 26.674 56.3956C26.9211 55.9972 27.053 55.5373 27.0548 55.0675V55.0675Z" stroke="white" stroke-miterlimit="10"/>
<path d="M24.0035 68.9567C35.5592 68.9567 44.927 59.5229 44.927 47.8858C44.927 36.2487 35.5592 26.8149 24.0035 26.8149C12.4478 26.8149 3.08008 36.2487 3.08008 47.8858C3.08008 59.5229 12.4478 68.9567 24.0035 68.9567Z" stroke="white" stroke-miterlimit="10"/>
</g>
<defs>
<clipPath id="clip0_783_66">
<rect width="48" height="72" fill="white"/>
</clipPath>
</defs>
</svg>
