<svg xmlns="http://www.w3.org/2000/svg" width="158.5" height="34.578" viewBox="0 0 158.5 34.578">
  <g id="slider-arrow1" transform="translate(-0.75 -11.263)">
    <path id="Path_1" data-name="Path 1" d="M159,44.25h.25v-.5H159ZM.823,43.823a.25.25,0,0,0,0,.354l1.591,1.591a.25.25,0,0,0,.354-.354L1.354,44l1.414-1.414a.25.25,0,0,0-.354-.354ZM159,43.75H1v.5H159Z" fill="#fff"/>
    <path id="Path_2" data-name="Path 2" d="M27.739,11.722h1.485L41.4,29.407h.054V11.722h1.188V31h-1.4L28.981,13.18h-.054V31H27.739Zm18.6,0H59.3v1.026H47.525V20.47H58.6V21.5H47.525v8.478H59.432V31h-13.1Zm14.706,9.747a12.554,12.554,0,0,1,.594-3.888,10.063,10.063,0,0,1,1.782-3.267A8.351,8.351,0,0,1,66.255,12.1a8.7,8.7,0,0,1,3.888-.837,9.245,9.245,0,0,1,2.835.432,7.675,7.675,0,0,1,4.212,3.294,7.328,7.328,0,0,1,.972,2.7H77.028A7.4,7.4,0,0,0,74.6,13.72a6.778,6.778,0,0,0-4.428-1.431,7.457,7.457,0,0,0-3.429.756,7.375,7.375,0,0,0-2.484,2.025,8.94,8.94,0,0,0-1.512,2.943,11.554,11.554,0,0,0-.513,3.456,12.246,12.246,0,0,0,.486,3.483A8.684,8.684,0,0,0,64.2,27.787a7.376,7.376,0,0,0,2.484,1.944,8.894,8.894,0,0,0,6.588.135A6.441,6.441,0,0,0,75.6,28.273a6.61,6.61,0,0,0,1.458-2.457,8.906,8.906,0,0,0,.4-3.24h-7.1V21.55h8.127V31H77.46V26.9h-.054a6.05,6.05,0,0,1-1.053,1.917,6.778,6.778,0,0,1-1.674,1.431,8.438,8.438,0,0,1-2.133.891,9,9,0,0,1-2.43.324,9.2,9.2,0,0,1-3.888-.783,8.359,8.359,0,0,1-2.835-2.133,9.174,9.174,0,0,1-1.755-3.159A12.643,12.643,0,0,1,61.044,21.469Zm26.739-9.747h1.3L96.692,31H95.424l-2.43-6.183H83.759L81.3,31H80.034Zm4.833,12.069L88.484,12.883H88.43L84.137,23.791Zm1.56-11.043V11.722h14.769v1.026h-6.8V31h-1.188V12.748Zm16.38-1.026h12.96v1.026H111.743V20.47h11.07V21.5h-11.07v8.478H123.65V31h-13.1Z" fill="#969696"/>
  </g>
</svg>
