<svg xmlns="http://www.w3.org/2000/svg" width="158.5" height="31.578" viewBox="0 0 158.5 31.578">
  <g id="slider-arrow3" transform="translate(-127.75 -11.263)">
    <path id="Path_5" data-name="Path 5" d="M286,41.25h.25v-.5H286Zm-158.177-.427a.251.251,0,0,0,0,.354l1.591,1.591a.25.25,0,0,0,.354-.354L128.354,41l1.414-1.414a.25.25,0,0,0-.354-.354ZM286,40.75H128v.5H286Z" fill="#969696"/>
    <path id="Path_6" data-name="Path 6" d="M142.656,11.722h8.208a9.4,9.4,0,0,1,1.782.189,4.622,4.622,0,0,1,1.836.783,4.307,4.307,0,0,1,1.431,1.647,5.867,5.867,0,0,1,.567,2.781,4.937,4.937,0,0,1-1.566,3.915,6.578,6.578,0,0,1-4.482,1.377h-6.588V31h-1.188Zm1.188,9.666h6.777a5.6,5.6,0,0,0,2.187-.378,4.07,4.07,0,0,0,1.458-1.026,3.9,3.9,0,0,0,.783-1.377,4.917,4.917,0,0,0,.243-1.512,5.961,5.961,0,0,0-.162-1.269,3.8,3.8,0,0,0-.648-1.431,3.679,3.679,0,0,0-1.377-1.161,4.738,4.738,0,0,0-2.322-.486h-6.939Zm15.064-9.666h8.046a10.006,10.006,0,0,1,2.376.27,5.269,5.269,0,0,1,1.944.837,3.787,3.787,0,0,1,1.3,1.512,5.1,5.1,0,0,1,.486,2.349,5.026,5.026,0,0,1-1.107,3.294,4.748,4.748,0,0,1-3.024,1.647v.054a4.491,4.491,0,0,1,2.079.7,3.39,3.39,0,0,1,1.161,1.323,5.339,5.339,0,0,1,.486,1.728,16.631,16.631,0,0,1,.108,1.89v1.107a9.3,9.3,0,0,0,.054,1.026,6.133,6.133,0,0,0,.162.864,2.168,2.168,0,0,0,.351.675H172a3.61,3.61,0,0,1-.432-1.566q-.027-.918-.027-1.89t-.081-1.917a4.128,4.128,0,0,0-.513-1.728,3.062,3.062,0,0,0-1.377-1.215,5.993,5.993,0,0,0-2.619-.459H160.1V31h-1.188Zm8.046,9.477a7.371,7.371,0,0,0,1.944-.243,4.313,4.313,0,0,0,1.566-.81,3.79,3.79,0,0,0,1.026-1.377,4.826,4.826,0,0,0,.378-2,3.843,3.843,0,0,0-.4-1.836,3.536,3.536,0,0,0-1.08-1.269,4.438,4.438,0,0,0-1.566-.7,7.881,7.881,0,0,0-1.863-.216H160.1V21.2Zm26.73.162a12.471,12.471,0,0,1-.621,3.969,9.539,9.539,0,0,1-1.809,3.213,8.291,8.291,0,0,1-2.862,2.133,9.133,9.133,0,0,1-3.861.783,9.318,9.318,0,0,1-3.888-.783,8.569,8.569,0,0,1-2.889-2.133,9.8,9.8,0,0,1-1.782-3.213,12.471,12.471,0,0,1-.621-3.969,12.225,12.225,0,0,1,.621-3.942,9.445,9.445,0,0,1,1.782-3.213,8.407,8.407,0,0,1,2.889-2.16,9.318,9.318,0,0,1,3.888-.783,9.133,9.133,0,0,1,3.861.783,8.14,8.14,0,0,1,2.862,2.16,9.2,9.2,0,0,1,1.809,3.213A12.225,12.225,0,0,1,193.684,21.361Zm-17.145,0a11.2,11.2,0,0,0,.54,3.51,8.779,8.779,0,0,0,1.566,2.889,7.661,7.661,0,0,0,2.511,1.944,7.56,7.56,0,0,0,3.375.729,7.389,7.389,0,0,0,3.348-.729,7.661,7.661,0,0,0,2.511-1.944,8.779,8.779,0,0,0,1.566-2.889,11.677,11.677,0,0,0,0-7.02,8.473,8.473,0,0,0-1.566-2.862,7.5,7.5,0,0,0-2.511-1.971,7.389,7.389,0,0,0-3.348-.729,7.4,7.4,0,0,0-5.886,2.7,8.473,8.473,0,0,0-1.566,2.862A11.2,11.2,0,0,0,176.539,21.361Zm16.776-8.613V11.722h14.769v1.026h-6.8V31h-1.188V12.748Zm16.38-1.026h12.96v1.026H210.883V20.47h11.07V21.5h-11.07v8.478H222.79V31H209.7Zm14.679,9.639a12.225,12.225,0,0,1,.621-3.942,9.445,9.445,0,0,1,1.782-3.213,8.407,8.407,0,0,1,2.889-2.16,9.318,9.318,0,0,1,3.888-.783,8.493,8.493,0,0,1,2.943.459,6.884,6.884,0,0,1,2.079,1.107,6.2,6.2,0,0,1,1.4,1.431,7.216,7.216,0,0,1,.81,1.485,6.191,6.191,0,0,1,.405,1.188q.108.486.108.54h-1.188a5.639,5.639,0,0,0-.783-2.16,5.914,5.914,0,0,0-1.485-1.647,6.567,6.567,0,0,0-2-1.026,7.38,7.38,0,0,0-2.295-.351,7.4,7.4,0,0,0-5.886,2.7,8.473,8.473,0,0,0-1.566,2.862,11.677,11.677,0,0,0,0,7.02,8.779,8.779,0,0,0,1.566,2.889,7.661,7.661,0,0,0,2.511,1.944,7.56,7.56,0,0,0,3.375.729,6.116,6.116,0,0,0,2.619-.567,7.48,7.48,0,0,0,2.16-1.539,7.627,7.627,0,0,0,1.458-2.214,7.47,7.47,0,0,0,.648-2.619h1.188a9.277,9.277,0,0,1-.864,3.186,8.753,8.753,0,0,1-1.755,2.538,7.664,7.664,0,0,1-5.454,2.241,9.318,9.318,0,0,1-3.888-.783,8.569,8.569,0,0,1-2.889-2.133,9.8,9.8,0,0,1-1.782-3.213A12.471,12.471,0,0,1,224.374,21.361Zm17.3-8.613V11.722h14.769v1.026h-6.8V31h-1.188V12.748Zm28.645,4.482a5.032,5.032,0,0,0-.54-2.16,4.385,4.385,0,0,0-1.269-1.539,5.4,5.4,0,0,0-1.944-.918,8.626,8.626,0,0,0-2.43-.324,8.986,8.986,0,0,0-1.755.189,5.486,5.486,0,0,0-1.728.675,3.8,3.8,0,0,0-1.3,1.269,3.526,3.526,0,0,0-.513,1.971,2.99,2.99,0,0,0,.567,1.89,4.255,4.255,0,0,0,1.485,1.188,10.315,10.315,0,0,0,2.106.7q1.188.27,2.4.513a24.663,24.663,0,0,1,2.4.594,7.463,7.463,0,0,1,2.106.918,4.2,4.2,0,0,1,2.079,3.834,4.664,4.664,0,0,1-.648,2.538,5.415,5.415,0,0,1-1.647,1.674,6.409,6.409,0,0,1-2.187.918,9.453,9.453,0,0,1-2.3.3,12.882,12.882,0,0,1-3.186-.378,7.1,7.1,0,0,1-2.592-1.161,5.985,5.985,0,0,1-1.755-2.133,7.027,7.027,0,0,1-.594-3.159h1.188a5.469,5.469,0,0,0,.459,2.7,4.933,4.933,0,0,0,1.485,1.782,6.538,6.538,0,0,0,2.268,1.026,12.176,12.176,0,0,0,2.727.3,8.477,8.477,0,0,0,1.836-.216,5.537,5.537,0,0,0,1.809-.729,4.287,4.287,0,0,0,1.377-1.35,3.674,3.674,0,0,0,.567-2.106,3.2,3.2,0,0,0-.567-1.971,3.964,3.964,0,0,0-1.512-1.242,8.523,8.523,0,0,0-2.106-.756q-1.161-.3-2.4-.54-1.215-.243-2.4-.567a8.6,8.6,0,0,1-2.106-.864,4.705,4.705,0,0,1-1.485-1.431,4.154,4.154,0,0,1-.567-2.268,4.586,4.586,0,0,1,.567-2.349,4.757,4.757,0,0,1,1.512-1.593,6.467,6.467,0,0,1,2.106-.891,9.234,9.234,0,0,1,2.3-.3,10.713,10.713,0,0,1,2.808.351,6.255,6.255,0,0,1,2.295,1.053,5.089,5.089,0,0,1,1.593,1.836,6.543,6.543,0,0,1,.675,2.727Z" fill="#969696"/>
  </g>
</svg>
